x,y,z,name,department,commits,activity_days
3.5576723,0.48114023,0.36048684,semantic-release-bot|semantic-release-bot@martynus.net,undefined,79,240
3.5050004,0.40543714,0.5271436,lukas 'eipi' eipert|lukas eipert|git@leipert.io|leipert@gitlab.com,Frontend,74,366
6.4763613,-1.534216,2.2086482,phil hughes|me@iamphill.com|theephil@gmail.com,Create FE Team,1938,1457
6.299797,-1.7363154,2.6803524,filipa lacerda|filipa@gitlab.com|lacerda.filipa@gmail.com,Verify FE Team,873,895
6.223737,-1.7275395,2.6536684,clement ho|clementh@hp.com|clemmakesapps@gmail.com,Monitor FE Team,683,953
3.947336,-0.24629095,1.2229813,dimitrie hoekstra|dimitrieh|dimitrie@gitlab.com|dimitriehoekstra@gmail.com,CI/CD UX Team,153,944
1.9500858,0.37966946,1.5416638,mike greiling|mgreiling@gitlab.com|mike@pixelcog.com,Serverless FE Team,550,923
3.2105942,1.3993257,-0.31803393,sarrah vesselov|sarrahvesselov|svesselov@gitlab.com,undefined,149,416
3.899847,-0.032213926,1.0091534,tim zallmann|tim@tpmgames.com|tzallmann@gitlab.com,Frontend,223,649
3.934613,-0.04800493,1.0326092,hazel|hazel yang|hazel@gitlab.com,undefined,116,324
3.9609768,-0.35034803,1.3147905,"luke ""jared"" bennett|luke bennett|jared@jareds-macbook-pro.local|lbennett@gitlab.com|lukeeeebennettplus@gmail.com",Manage FE Team,270,1010
1.5863442,0.6244119,0.96202457,eric eastwood|contact@ericeastwood.com,Gitter Team,85,520
6.5749063,-1.6059226,2.3021052,annabel dunstone gray|annabel gray|annabel.dunstone@gmail.com|annabel.m.gray@gmail.com|annabel@gitlab.com,Dev UX Team,1134,1058
1.8746672,1.3584383,-0.8135292,chris peressini|cperessini@gitlab.com,Dev UX Team,23,931
3.3458436,0.48935834,0.50212103,winnie hellmann|winnie@gitlab.com,UX Department,84,679
3.1443384,0.4750242,0.36846206,pedro moreira da silva|pedro moreira da silva 🌴(ooo)|hi@pedroms.com|pedro@gitlab.com,Dev UX Team,62,778
4.025149,-0.13944341,1.1018524,taurie davis|tauriedavis|taurie@gitlab.com,Ops UX Team,176,963
1.2138075,-0.46247348,1.2963744,jose|jose ivan vargas|jose ivan vargas lopez|jose vargas|josé iván vargas lópez|jose.kahan@w3.org|jvargas@gitlab.com,Monitor FE Team,106,1602
3.514835,1.1945736,-0.5264229,andy volpe|avolpe@gitlab.com,Secure & Defend UX Team,44,174
3.1383817,1.3437487,-1.0787207,george tsiolis|tsiolis.g@gmail.com,Core Team,13,154
3.6408253,1.2182493,-0.9335691,sam beckham|samdbeckham|sbeckham@gitlab.com,Frontend,12,136
2.7990615,1.3006699,-0.23467179,matej latin|matejlatin|mlatin@gitlab.com,Dev UX Team,54,230
5.900135,-1.7499089,2.4414723,ahmad sherif|ahmad.m.sherif@gmail.com|ahmad@gitlab.com|me@ahmadsherif.com,Infrastructure Department,493,1042
7.075638,-1.9849236,2.8438418,ayufan|kamil trzcinski|kamil trzciński|kamil trzciński|kamil trzciński (ooo till 16th of april)|kamil trzciński (ooo till 3th)|ayufan@ayufan.eu|kamil.trzcinski@polidea.com|kamil@gitlab.com,Core Team Alumni,4822,1629
-0.9489574,0.6291049,1.5040207,pablo carranza|pcarranza@gmail.com,undefined,122,533
7.464105,-1.8882161,3.237558,robert speicher|15139-rspeicher@users.noreply.gitlab.com|robert@gitlab.com|rspeicher@gmail.com,Core Team Alumni,5207,2414
7.3207293,-1.8268492,3.0878649,stan hu|stanhu|stan@gitlab.com|stanhu@alum.mit.edu|stanhu@gmail.com|stanhu@packetzoom.com|stanhu@users.noreply.github.com,Core Team Alumni,1936,1482
1.7755127,-0.4614163,1.7275451,paco guzman|pacoguzmanp@gmail.com,undefined,134,181
6.728619,-1.9837971,2.6709206,z.j. van de weg|zeger-jan van de weg|zeger-jan van de weg 🌴 ooo back on 12th of august|zj van de weg|git@zjvandeweg.nl|gitlab@zjvandeweg.nl|mail@zjvandeweg.nl|zegerjan@gitlab.com|zegerjan@localhost.localdomain,Gitaly Team,869,1466
6.838931,-2.0030265,2.549862,tomasz maczukin|tomasz@gitlab.com|tomasz@maczukin.pl,Verify Team,1606,1234
-1.8987575,1.9055908,1.551863,winnie|gitlab@winniehell.de|💃 winnie 💃,undefined,16,196
3.8722856,0.090262614,0.8890217,ben kochie|bjk@gitlab.com|superq@gmail.com,Monitor BE Team,115,666
-1.6959608,2.2149332,1.5899364,tiago|tiago botelho|tiagonbotelho|tiagonbotelho@hotmail.com,undefined,392,961
7.238473,-1.9507735,2.9869876,douwe maan|douwe@gitlab.com|douwe@selenight.nl|me@douwe.me,Create BE Team,4147,1496
7.1629915,-1.9606415,2.9232264,rymai|rémy coutable|remy@gitlab.com|remy@rymai.me|🏖 rémy coutable 🏖,Core Team,3926,1269
0.8359816,1.209211,0.8140405,brian neel|brian@gitlab.com,undefined,33,395
6.5620294,-1.4342508,2.1052463,jacob schatz|jschatz1|jacob@mystuff.localdomain|jacobschatz@jacobs-macbook-pro.local|jacobschatz@jacobs-mbp.fios-router.home|jschatz1@gmail.com|jschatz@gitlab.com,Meltano,1927,8067
2.2433264,-0.703366,1.7207376,gabriel mazetto|brodock@gmail.com|gabriel@gitlab.com,Geo BE Team,629,2473
7.4736423,-1.86975,3.2440486,devaroop|devaroop bhattacharya|gitlab|marin jankovski|devaroop123@yahoo.co.in|example@example.com|git@dv6700.(none)|gitlab@localhost|gitlab@micazook.com|gitlab@mikebajur.com|gitlab@stone-server1|marin@gitlab.com|marin@marins-macbook-pro.local|maxlazio@gmail.com|projects@quackenbush.me|root@gitlab.com,Core Team Alumni,4372,2308
-1.1644151,-1.9207704,1.1088898,garen torikian|gjtorikian@gmail.com|gjtorikian@users.noreply.github.com,undefined,72,1214
-1.4005219,-3.6443663,1.3044446,brandon keepers|bkeepers@github.com|brandon@opensoul.org,undefined,73,544
1.3296239,0.010718367,1.0231919,dawa ometto|d.ometto@gmail.com|dawa.ometto@phil.uu.nl,undefined,112,1453
1.4218332,0.25903806,1.1742643,bart kamphorst|bart@kamphorst.com,undefined,47,1309
-1.5944656,-5.050486,0.8883861,vicent marti|vicent martí|tanoku@gmail.com|vicent@github.com,undefined,52,972
-2.4701467,-3.5868962,1.5094627,charlie somerville|charlie@charliesomerville.com,undefined,24,364
-1.6981405,-5.6899514,0.7384353,ryan tomayko|rtomayko@gmail.com|ryan@github.com,undefined,67,1109
-1.2995584,-5.1950054,0.8678289,ted nyman|ted@ted.io,undefined,238,476
-1.4328363,-6.0163636,0.54099905,rick|risk|technoweenie@gmail.com,undefined,274,1410
-1.3949637,-5.6061826,0.74171716,joshua peek|josh@joshpeek.com,undefined,699,763
-1.8289241,-6.4796314,0.2997846,chris wanstrath|chris@ozmm.org,undefined,122,981
-1.5951786,-6.180137,0.4578562,scott chacon|schacon@gmail.com,undefined,71,1146
2.2131886,-0.97805357,1.8323827,robert schilling|razer6@users.noreply.github.com|rschilling@student.tugraz.at|schilling.ro@gmail.com,Core Team,557,1766
-0.5567032,1.5640755,1.0491942,markus koller|markus-koller@gmx.ch|markus.koller.ext@siemens.com,undefined,19,396
5.9476585,-1.7189715,2.4084816,alejandro rodriguez|alejandro rodríguez|alejandro@gitlab.com|alejandroluis24@gmail.com|alejorro70@gmail.com,Engineering Function,536,1033
6.9162407,-1.8971034,2.7118857,yorick peterse|yorick@gitlab.com|yorickpeterse@gmail.com,Engineering Function,1314,1340
3.984944,-0.114305906,1.0856583,mark fletcher|mark@gitlab.com|markglenfletcher@googlemail.com,Engineering Productivity Team,227,1040
6.5014343,-1.4373578,2.1136363,lin jen-shin|lin jen-shin (godfat)|godfat@godfat.org,undefined,1050,1090
3.2103705,1.256046,-0.30532494,shinya maeda|shinya@gitlab.com,Release BE Team,27,430
2.8548162,0.39741403,0.8057888,takuya noguchi|tak.noguchi.iridge@gmail.com|takninnovationresearch@gmail.com,Core Team,73,1228
1.6893661,1.820522,-1.3739047,kushal pandya|kushalpandya|kushal@gitlab.com|kushalspandya@gmail.com,Merge Request coach,110,783
7.468049,-1.8769354,3.2435517,dmitriy zaporozhets|dz|randx|dmitriy.zaporozhets@gmail.com|dzaporozhets@gitlab.com|dzaporozhets@sphereconsultinginc.com,Core Team Alumni,18710,2679
-1.2638187,1.2763826,1.2652118,dick snel|d.snel@onvio.nl|dick.snel@ictu.nl,undefined,46,197
3.379052,1.169512,-0.53216577,francisco javier lópez|francisco javier lópez 🌴 on vacation; back on august 22th!|fjlopez@gitlab.com,Create BE Team,43,393
-1.3138444,-5.320197,0.803924,bootstraponline|cafe@bootstraponline.com|code@bootstraponline.com|matt@bootstraponline.com,undefined,554,865
-1.7351215,-5.1766963,0.73286253,daniel kimsey|dekimsey|dekimsey@gmail.com|dekimsey@ufl.edu,undefined,24,472
-1.6773918,-4.3314133,1.2484883,jamie oliver|git@jamieoliver.io|git@jamieoliver.name|github@jamieoliver.name,undefined,27,552
-2.5314004,-4.5615063,1.1477238,sunny ripert|sunny@sunfox.org,undefined,28,698
-2.4349344,-6.4375014,0.59907293,corey donohoe|atmos@atmos.org,undefined,56,118
-2.5924954,-6.628205,0.44960994,kristi|kristi.dev@gmail.com,undefined,59,21
-2.6504781,-6.6030083,0.40210807,aman gupta|aman@tmm1.net,undefined,44,481
-1.381357,-5.962223,0.568451,tom preston-werner|tom@mojombo.com,undefined,363,1656
-2.3835638,-4.333351,0.9070979,chris hoffman|cehoffman@gmail.com,undefined,18,3069
-2.4452615,-6.6873827,0.07778811,eston|eston@dev-vm.(none)|eston@github.com,undefined,111,131
-2.327358,-6.711114,0.061683077,eston bond,undefined,53,38
-2.301398,-6.0405674,0.72432,arran cudbard-bell|a.cudbard-bell@freeradius.org|a.cudbard@networkradius.org|a.cudbardb@freeradius.org|arran.cudbard-bell@hp.com,undefined,17,626
-1.0273008,-2.0314014,1.3325088,stefan tatschner|rumpelsepp@sevenbyte.org|stefan@sevenbyte.org,undefined,21,284
-1.5876929,1.2323394,1.3183519,http://jneen.net/|jneen@jneen.net,undefined,121,195
1.9520911,-0.6056476,1.7837403,connor shea|connorshea|connor.james.shea@gmail.com,undefined,295,377
6.824535,-1.8538461,2.7291768,sean mcgivern|sean@gitlab.com|sean@mcgivern.me.uk,Plan BE Team,1808,1050
6.8948255,-1.9202709,2.6809058, off until 20th june|grzegorz bizon|grzegorz bizon |grzegorz.bizon@ntsn.pl|grzegorz@gitlab.com|grzesiek.bizon@gmail.com,Serverless BE Team,1837,1256
3.702698,0.7382499,-0.14950114,steve azzopardi|sazzopardi@gitlab.com|steveazz@outlook.com,Verify Team,143,192
4.08668,-0.3771631,1.3091762,alessio caiazza|acaiazza@gitlab.com|alessio@chorally.com|nolith@abisso.org|nolith@users.noreply.github.com,Release BE Team,304,725
2.40759,1.5608197,-1.1043248,dylan griffith|dyl.griffith@gmail.com,Configure BE Team,42,211
2.452492,1.6113544,-1.2031406,thong kuah|tkuah@gitlab.com,Configure BE Team,15,160
6.611779,-2.021862,2.6305838,dj mountney|david.mountney@twkie.net|david@twkie.net|dj@gitlab.com|dmountney@perforce.com,undefined,786,1708
3.3098326,0.31613767,0.40766296,toon claes|toon@canyonero.local|toon@gitlab.com|toon@iotcl.com,Geo BE Team,76,847
1.6464748,1.245675,-0.8516687,pawel chojnacki|paweł chojnacki|pawel@chojnacki.ws,undefined,254,390
-2.0704195,1.7646105,1.4394796,kevin lyda|kevin@ie.suberic.net|lyda@gitlab.com,undefined,24,1528
0.92349553,1.1947145,0.67876375,julius volz|julius.volz@gmail.com|julius@soundcloud.com|juliusv@gitlab.com,undefined,32,522
-1.2398155,-1.8394965,0.9708901,tobias schmidt|tobidt@gmail.com|ts@soundcloud.com,undefined,72,1214
3.271878,0.45624927,0.7021784,richard clamp|richardc@unixbeard.net,undefined,82,273
1.765057,0.14736952,0.9973218,will fleming|zaphod beeblebrox|will@codeclimate.com|will@flemi.ng|will@jwock.org|will@mintdigital.com,undefined,133,755
1.010738,1.0615475,0.9719386,max jacobson|max@hardscrabble.net,undefined,37,244
-0.59656775,1.7082211,1.0172658,alexander mankuta|alex+github@pointless.one|alex@pointless.one,undefined,15,246
1.5118737,0.7317448,1.2172012,devon blandin|dblandin@gmail.com,undefined,72,643
1.4155233,0.5104702,1.317842,abaldwinhunter|ashley baldwin-hunter|abaldwinhunter@codeclimate.com,undefined,83,733
1.3474526,0.025808085,1.2654334,pat brisbin|patrick brisbin|pbrisbin@gmail.com,undefined,154,650
-0.9211302,-0.3355774,1.548966,john pignata|john@pignata.com,undefined,43,195
1.3816237,0.14481775,1.2985561,gordon diggs|gordondiggs|gordon@gordondiggs.com,undefined,149,742
-1.7483224,-0.81608677,1.727019,blake williams|blake@blakewilliams.me,undefined,13,49
-1.5556176,-1.0075994,1.5218908,francis hwang|sera@fhwang.net,undefined,61,56
-1.4025583,-1.5455573,1.3424621,michael bernstein|mrb|michaelrbernstein@gmail.com,undefined,20,456
2.5337644,-1.0524789,1.8568978,drew blessing|dblessing@users.noreply.github.com|drew.blessing@buckle.com|drew.blessing@mac.com|drew.blessing@me.com|drew@blessing.io|drew@gitlab.com,Core Team Alumni,283,2109
7.454125,-1.8772426,3.216778,jacob vosmaer|jacob vosmaer (back in office feb 19)|jacob vosmaer (gitlab)|jacob vosmaer (out of office may 10-14)|contact@jacobvosmaer.nl|jacob@gitlab.com,Core Team Alumni,4418,2088
-2.1465223,-3.7321048,1.4931965,ping yu|ping@intridea.com|pyu10055@gmail.com,undefined,18,781
-1.6104426,-3.9712007,1.3074387,jason hollingsworth|jason.m.hollingsworth@erdc.dren.mil|jhworth.developer@gmail.com,undefined,23,134
2.9823322,0.7731451,0.08570471,michael kozono|mkozono@gmail.com,Geo BE Team,59,514
2.940884,0.6930255,0.7014861,joshua lambert|joshua@gitlab.com,Product Management,97,767
3.7992177,-0.17870174,1.2174605,"kim ""bkc"" carlbäcker|kim carlbäcker|kim.carlbacker@gmail.com|kim@gitlab.com",undefined,202,541
7.1211157,-1.9910471,2.8985283,dosire|sid sijbrandij|sytse (admin)|sytse sijbrandij|sytse sijbrandij (admin)|sytses|sytse+admin@gitlab.com|sytse@dosire.com|sytse@gitlab.com|sytses@gmail.com,Core Team Alumni,1321,2267
3.9499338,-0.28573272,1.261709,andrew newdigate|andrew@gitlab.com|andrew@troupe.co,Infrastructure Department,298,785
3.6544843,1.1214027,-0.75936574,paul okstad|pokstad@gitlab.com,Gitaly Team,26,48
3.695739,0.95114607,-0.5366399,john cai|jcai@gitlab.com,Gitaly Team,54,87
2.2790196,-0.9869982,1.8507433,job van der voort|job@gitlab.com|jobvandervoort@gmail.com|jvandervoort@digidentity.eu|🚄 job van der voort 🚀,undefined,372,1591
2.2154028,1.3257762,-0.44311786,jarka kadlecova|jarka kadlecová|jarka košanová|jarka@gitlab.com|kadlecovaj@gmail.com,Plan BE Team,35,741
2.5754616,-0.99130476,1.7849952,ben bodenmiller|bbodenmiller@hotmail.com,Core Team,268,2110
5.918828,-1.7669519,2.445356,nick thomas|gitlab@ur.gs|me@ur.gs|nick@bytemark.co.uk|nick@gitlab.com,Create BE Team,546,1049
5.8148513,-1.5947871,2.2650642,"balasankar ""balu"" c|balasankar c|balasankar@gitlab.com|balasankarc@autistici.org",Distribution BE Team,568,879
1.6107513,1.6537213,-1.5143118,matija čupić|matija.cupic.97@gmail.com|matija@gitlab.com|matteeyah@gmail.com,Verify Team,42,381
1.8695458,-0.17255312,1.6039225,douglas barbosa alexandre|dbalexandre@gmail.com,Geo BE Team,876,1195
3.180946,1.2303218,-1.119311,ash mckenzie|amckenzie@gitlab.com|ash@the-rebellion.net,Geo BE Team,73,302
2.64286,1.2455951,-0.71587896,ahmad hassan|ahmad posten|ahassan@gitlab.com|ahmad.hassan612@gmail.com,undefined,18,336
1.8226459,-0.50815094,1.7650307,ruben davila|rubén dávila|rubén dávila santos|rdavila84@gmail.com|ruben@gitlab.com,Fulfillment BE Team,550,992
6.258595,-1.5230991,2.2048883,"james lopez|james lopez 🌴back 27th, aug|james.lopez@vodafone.com|james@gitlab.com|james@jameslopez.es",Merge Request coach,1421,1191
2.3894577,1.057882,0.12854826,oswaldo ferreira|oswaldo@gitlab.com|oswluizf@gmail.com,Merge Request coach,71,832
1.8710362,1.4709989,-1.470193,james ramsay|james@jramsay.com.au|jramsay@gitlab.com,Product Management,11,345
2.9976847,0.20354483,0.6179722,bob van landuyt|bob@gitlab.com|bob@vanlanduyt.co,Create BE Team,50,830
3.7248473,1.1337147,-0.8576931,michael leopard|mleopard@gitlab.com,Customer Success,15,81
2.6821136,1.3000599,-1.0011966,brett walker|digitalmoksha|brett@digitalmoksha.com|bwalker@gitlab.com,Plan BE Team,15,463
3.4185944,0.53697526,0.6055448,jason plum|jplum@gitlab.com|max@warheads.net,Distribution BE Team,87,939
3.7490456,1.0730536,-0.7448508,patrick bajao|ebajao@gitlab.com,Create BE Team,12,13
2.569438,1.5183004,-1.1355734,amit rathi|amit@hypertrack.io,undefined,15,89
3.2655754,0.25239196,0.46490544,elan ruusamäe|glen@delfi.ee|glen@pld-linux.org,undefined,68,1057
2.068918,-0.8165655,1.7928697,patricio cano|patricio@gitlab.com|suprnova32@gmail.com,undefined,342,812
7.11307,-2.0500305,2.8627856,valera sizov|valeriy sizov|valery sizov|zevs|admin@example.com|admin@example12.com|valery@gitlab.com|vsv2711@gmail.com,undefined,1998,2665
2.170002,-1.0832353,1.8018526,jeroen van baarsen|jeroen@logiconline.nl|jeroenvanbaarsen@gmail.com,undefined,277,1122
-1.5370367,-4.422095,1.2909869,johannes|johannes schleifenbaum|johannes@js-webcoding.de,undefined,38,639
-2.3342514,-3.933059,1.4145695,angelo lakra|alakra@comverge.com|angelo.lakra@gmail.com,undefined,11,6
-2.3374774,-3.7191896,1.4874777,jeroen knoops|jeroen.knoops@gmail.com,undefined,11,23
-1.0233418,-3.0349042,1.4023312,ciro santilli|ciro santillli|ciro.santilli@gmail.com,undefined,206,409
-1.0909384,-1.5579146,1.4554498,josh frye|joshfng@gmail.com|joshfng@mbp.local,undefined,72,818
7.103247,-1.911197,2.8838656,achilleas pipinellis|axilleas|axilleas pipinellis|axil@gitlab.com|axilleas@archlinux.gr|axilleas@axilleas.me|axilleas@users.noreply.github.com,Core Team Alumni,2781,2221
-1.5335665,-1.999745,1.4669979,daniel gerhardt|code@dgerhardt.net,undefined,16,54
1.3017209,-0.29335675,1.3936405,jeroen nijhof|jeroen@gitlab.com|jeroen@jeroennijhof.nl,undefined,108,632
0.88916117,-0.63727546,1.3588461,karen|karen carias|karen sijbrandij|karen.sijbrandij@gmail.com|karen@gitlab.com,undefined,152,342
1.6809226,1.95573,-1.2610968,jonathon reinhart|jonathon.reinhart@gmail.com|jreinhart@cc-sw.com,undefined,32,1179
-1.0912912,-1.6747478,1.2690389,alex lossent|alexandre.lossent@cern.ch,undefined,20,219
1.8491223,0.21397093,1.30191,adam niedzielski|adamsunday@gmail.com,undefined,93,325
-1.5742577,-5.414805,0.81076396,riyad preukschas|riyad@informatik.uni-bremen.de,undefined,447,247
-1.9050926,-3.959519,1.267052,ogom|ogom@hotmail.co.jp,undefined,19,263
1.1358874,-0.48677137,1.3445508,hiroyuki sato|sato hiroyuki|h-sato@ruby-dev.jp|hiroyuki_sato@spiber.jp|sathiroyuki@gmail.com,undefined,122,1469
-1.619431,-3.374357,1.542186,steven thonus|github@popl.nl|steven@ln2.nl,undefined,11,472
-1.4782232,-3.5556479,1.2280393,marc radulescu|marc@gitlab.com|marcradulescu@marcs-macbook-air.local,undefined,23,525
-1.0787364,-1.5903729,1.1577511,bugagazavr|kirill zaitsev|kirilll zaitsev|kirilll zaycev|kirik910@gmail.com,undefined,17,726
-2.377949,-3.1783042,1.5110339,matthieu vachon|matthieu.o.vachon@gmail.com|matthieu.ouellette-vachon@nuecho.com,undefined,22,640
-1.1361918,-2.9760149,1.4190052,jan-willem|jan-willem van der meer|jw@gitlab.com|mail@jewilmeer.nl,undefined,226,161
-1.0583018,-4.724263,0.98805106,seth chisamore|schisamo@chef.io|schisamo@getchef.com|schisamo@opscode.com,undefined,237,1316
-1.2286854,-2.855767,1.4072155,yvonne lam|yvonne@opscode.com|yzl@users.noreply.github.com,undefined,59,388
-1.4397992,-1.8593322,1.5239582,scott hain|shain@chef.io|shain@getchef.com,undefined,33,409
-1.0979211,-3.313533,1.3618739,seth vargo|sethvargo@gmail.com,undefined,721,506
-1.4852,-1.9821328,1.5674917,jay mundrawala|jdmundrawala@gmail.com,undefined,45,378
-1.6600811,-1.7614834,1.6461834,steven danna|steve@chef.io|steve@opscode.com,undefined,33,567
-1.5960206,-3.468521,1.2977154,lamont granquist|lamont-granquist|lamont@scriptkiddie.org,undefined,42,465
-1.6022785,-5.568531,0.7633333,sdelano|stephen delano|stephen@opscode.com|steviedu@gmail.com,undefined,138,907
-1.5197388,-3.2176266,1.0370485,serdar sutay|sersut|serdar@opscode.com,undefined,41,1007
-2.5018394,-4.7361937,0.92423886,adam jacob|adam@opscode.com,undefined,25,759
-1.4854819,-3.8723643,1.3090006,daniel deleo|danielsdeleo|dan@getchef.com|dan@opscode.com,undefined,77,1181
-2.3756144,-3.5218697,1.5218929,seth falcon|seth@chef.io|seth@opscode.com,undefined,12,1014
-2.4915302,-3.664381,1.4898857,christopher maier|christopher.maier@gmail.com|cm@chef.io|cm@opscode.com,undefined,50,837
-1.9517748,-4.875082,1.1129242,lamont-opscode|lamont@opscode.com,undefined,33,500
-2.548961,-6.7253156,0.43449724,marc paradise|marc@opscode.com,undefined,24,49
-2.9416316,-5.957739,0.34419897,noah kantrowitz|noah@coderanger.net,undefined,12,708
-1.8779719,-1.1188173,1.5975679,kartik null cating-subramanian|ksubramanian@chef.io,undefined,17,85
-1.7603703,-1.1997572,1.6090221,jared szechy|jared.szechy@brilligent.com|jared.szechy@gmail.com,undefined,15,971
-1.8231133,-1.042571,1.6235675,salim alam|salam@chef.io,undefined,14,96
2.5973916,0.823632,0.7835496,james edwards-jones|jamedjo@gmail.com|jedwardsjones@gitlab.com,Manage BE Team,104,770
-0.7767412,-1.8065779,1.2335942,blackst0ne|blackst0ne.ru@gmail.com,undefined,20,1729
-2.3275871,-6.697707,0.42748827,pj hyett|pj@github.com|pjhyett@gmail.com,undefined,20,1089
-2.00408,-0.42661119,1.5123271,bryan helmkamp|bryan@brynary.com,undefined,27,1922
-2.0908897,-6.6722136,0.2909527,rob sanheim|rsanheim@gmail.com,undefined,13,1423
-2.1187232,-5.345182,0.88017684,mislav marohnić|mislav.marohnic@gmail.com,undefined,13,2
-2.0935867,-5.3720117,0.85742235,steve piercy|web@stevepiercy.com,undefined,15,136
-0.8934139,1.1205577,1.1878071,jose diaz-gonzalez|email@josediazgonzalez.com|josegonzalez@users.noreply.github.com,undefined,81,1774
-2.5379274,-4.521733,1.1908911,andrew kumanyaev|andrey kumanyaev|me@zzet.org,undefined,118,690
1.0857743,0.96388626,1.0651647,balameb|jose torres|torres@balameb.com,undefined,64,580
1.7624915,-0.05429236,1.5465093,winniehell|git@winniehell.de,undefined,111,241
-1.5539601,-0.89072496,1.5077983,ian tien|iantien@spinpunch.com,undefined,42,341
1.3208599,0.81968546,1.2438065,ernst van nierop|ernstvn|ernst@gitlab.com,undefined,41,631
2.0788128,0.22295181,1.0600737,chris wilson|dev-chris|chris@chrisjwilson.com,undefined,59,446
-1.1715891,0.92242354,1.2683194,de wet blomerus|dewet@blomerus.org,undefined,13,85
1.6684053,0.5758633,1.0948261,sean packham|sean packham (gitlab)|seanpackham|sean@seanpackham.com|seanpackham@gitlab.com,undefined,70,264
3.266982,0.48978958,0.6785201,simon knox|psimyn@gmail.com|simon@gitlab.com,Monitor FE Team,91,771
6.510765,-1.429186,2.1020262,fatih acet|acetfatih@gmail.com,Plan FE Team,1043,1007
3.0077906,1.408313,-0.3911444,andreas kämmerle|andreas kämmerle|akaemmerle@gitlab.com|andreas.kaemmerle@gmail.com,Product Management,37,227
2.9359622,1.0162996,-0.2284365,john jarvis|john jarvis 🌴 🌴 ooto until jan 7th 🌴 🌴|jarv@gitlab.com,Infrastructure Department,28,562
2.3974345,1.6735525,-1.0745453,mario de la ossa|mariodelaossa@gmail.com|mdelaossa@gitlab.com,Plan BE Team,16,143
3.3831542,1.3656198,-0.32821128,victor wu|victorwu|victorwu416|victor@gitlab.com|wu.victor@gmail.com,Product Management,61,894
2.304273,-0.290007,1.4927874,felipe artur|fcardozo@gitlab.com|felipefac@gmail.com,Plan BE Team,173,723
2.8034363,1.3636262,-0.6706673,gitlab bot|gitlab-bot@gitlab.com,undefined,20,206
3.5804808,1.0326475,-0.7516715,adriel santiago|adriel@adriels-macbook-pro.local|adriel@gitlab.com|asantiago@gitlab.com,Monitor FE Team,51,223
2.949045,1.134483,-0.44402245,mark lapierre|mlapierre@gitlab.com,Dev QE Team,26,216
2.794802,1.4245404,-0.9081085,dan davison|ddavison|ddavison@gitlab.com,Ops & CI/CD QE Team,19,243
3.3898733,1.2046152,-0.9038109,sanad liaquat|sliaquat|sliaquat@gitlab.com,Dev QE Team,42,175
-1.5798556,2.2177842,1.181823,daniel widerin|daniel@widerin.net,undefined,41,1097
-1.9341762,-4.596954,1.2270906,yves senn|yves.senn@gmail.com,undefined,45,120
-1.1526815,-5.144254,0.8156294,nihad abbasov|mail@narkoz.me|narkoz.2008@gmail.com,undefined,246,1274
-1.7447398,-5.0327706,0.87077373,ariejan de vroom|ariejan@ariejan.net,undefined,76,617
-2.3346348,-3.7314012,1.4515781,sam gleske|sag47@drexel.edu,undefined,23,141
-1.7338626,-3.380615,1.4700338,arif ali|mail@arif-ali.co.uk,undefined,16,365
-1.7371911,-3.2584295,1.5070584,cyril rohr|cyril.rohr@gmail.com,undefined,16,286
3.2635102,1.4190922,-0.328595,alex hanselka|alex@darkdna.net|alex@gitlab.com,Infrastructure Department,35,944
3.3757284,1.2937099,-1.0202367,evan read|eread@gitlab.com,Technical Writing,12,147
5.8708897,-1.5458852,2.247468,ian baum|ianbaum@ianbaum.net|ibaum@gitlab.com,Distribution BE Team,398,897
1.1521525,1.1459981,0.5963075,mark pundsack|mark@pundsack.com|markpundsack@users.noreply.github.com|mpundsack@gitlab.com,Product Management,99,880
1.5900965,1.3634737,-1.0330089,daniele valeriani|daniele@valeriani.co.uk,undefined,22,231
1.5602323,1.5022088,-1.4637074,ilya frolov|ilya@gitlab.com,undefined,23,329
2.929221,0.99194914,-0.13523324,mayra cabrera|mcabrera@gitlab.com,Configure BE Team,28,300
-2.086445,-4.3030486,1.147195,javier castro|javier.alejandro.castro@gmail.com|javiercastro@nexion.com.ar,undefined,20,334
-1.0551933,-3.3642812,1.3537508,evgeniy sokovikov|headless|skv|skv-headless|skv-headless@yandex.ru,undefined,36,401
-1.1791233,-2.8687296,1.3913342,vinnie okada|vincent@gitlab.com|vokada@mrvinn.com,undefined,122,267
-1.4496405,-3.3159444,1.3960298,sean edge|asedge@gmail.com,undefined,15,175
-1.7153882,-1.7018121,1.6196448,sullivan senechal|soullivaneuh@gmail.com,undefined,18,402
-2.0137534,1.4509073,1.4781256,jo hund|jhund@clearcove.ca,undefined,11,662
-1.0805459,0.45424497,1.1784352,ben boeckel|ben.boeckel@kitware.com,undefined,34,638
-1.7748275,0.96407473,1.4004588,cody mize|kingcody|me@codymize.com,undefined,12,502
-2.0171075,-0.65173817,1.6273462,benjamin pannell|admin@sierrasoftworks.com,undefined,76,126
-1.8851348,-0.62466216,1.7176571,matthew cillo|matthewacillo@gmail.com,undefined,16,0
-1.6103178,1.8575248,1.6779128,dennis günnewig|maxmeyer|dev@fedux.org,undefined,15,802
-1.6035591,1.6129968,1.2916366,james munnelly|james.munnelly@gmail.com|james@munnelly.eu,undefined,136,255
-1.583536,2.2110088,1.2550085,luke mallon|luke.mallon@axonista.com,undefined,24,127
-1.09391,0.7563527,1.173041,jason roehm|jasonr@3db-labs.com,undefined,30,258
-1.6494365,1.7794439,1.6137148,janis meybohm|janis.mey@posteo.de|tuxnet@posteo.de,undefined,39,376
-2.0787957,-2.1482363,1.3780818,koen punt|koen@koenpunt.nl,undefined,34,1515
-0.73808616,1.2536492,1.242704,matthew law|mjl@corefiling.com|mlaw@jsl.co.nz,undefined,60,66
-1.5221529,2.4369328,1.4495058,otávio fernandes|ofernandes@schubergphilis.com,undefined,36,0
-1.6340693,2.098161,1.6661438,birger schmidt|bs-github@netgaroo.com,undefined,28,5
-1.8295915,1.882149,1.6127819,jan christophersen|jan@ruken.pw,undefined,18,340
-1.5411208,0.69247735,1.5264192,kévin gomez|contact@kevingomez.fr|kgomez@tea-ebook.com,undefined,14,47
2.5373714,1.4283864,-0.6984658,tuomo ala-vannesluoma|tuomoav@gmail.com,undefined,46,110
-2.8124526,-6.525691,0.2036558,gitlabhq|m@gitlabhq.com,undefined,282,199
-3.0131478,-6.2819405,0.22325628,aleksei kvitinskii|aleksei.kvitinskii@active.by|aleksei.wm@gmail.com,undefined,29,20
-3.137291,-6.3936114,0.10746965,ricardo rauch|ricardo@gravityonmars.com,undefined,24,7
-1.6354226,-5.6419597,0.79726917,saito|saitowu@gmail.com,undefined,91,540
1.5987873,0.2784445,1.2714357,hannes rosenögger|123haynes@gmail.com|hannes.rosenoegger@bva.bund.de,Core Team,93,1351
-1.9361471,-0.8070221,1.7003717,andrey|ad@2d-arts.com,undefined,16,84
1.9187505,-0.4606278,1.7061095,alfredo sumaran|a.sumaran@gmail.com|alfredo@gitlab.com,undefined,1055,439
-0.864198,-3.2185044,1.294807,bryce|bryce johnson|bryce@gitlab.com,undefined,473,7819
-1.5330431,1.279274,1.3873514,airat shigapov|contact@airatshigapov.com,undefined,14,52
1.0483689,0.9678101,1.2100047,allison whilden|awhildy|allison@gitlab.com,undefined,26,111
1.7249252,0.45433617,1.5316645,regis|regis boudinot|selfup|boudinot.regis@yahoo.com,undefined,299,287
2.5149574,0.20871267,0.80490947,marcia ramos|marcia ramos 🚫 (ooo - back on may 23)|virtua.creative@gmail.com,Technical Writing,60,843
1.1419569,0.97067535,1.0619264,timothy andrew|mail@timothyandrew.net|tim@tim-mbp.local,undefined,401,463
-1.439674,2.3989058,1.1910454,francesco coda zabetta|francesco.codazabetta@gmail.com,undefined,11,692
-1.2426504,-1.662697,1.2568487,artem sidorenko|artem.sidorenko@telekom.de|artem@posteo.de,undefined,29,419
-1.0431609,1.2138684,1.3181792,hrvoje marjanovic|hrvoje.marjanovic@crossvallia.hr,undefined,42,27
2.0850847,0.3245016,0.9236007,michael hobbs|github@psudo.net|michaelshanehobbs@gmail.com|michaelshobbs@users.noreply.github.com,undefined,380,1140
-1.1920942,-2.213323,1.3469423,jeff lindsay|progrium@gmail.com,undefined,64,248
-1.9972014,-6.622378,0.20073703,bryce kerley|bryce@worldmedia.net,undefined,11,1
1.2928189,0.9648197,0.984618,sam rose|samrose3|sam@gitlab.com|samrose3@gmail.com,undefined,29,187
1.6057174,1.3903257,-1.2389631,david schile|david.v.schile@nordstrom.com,undefined,14,22
1.7381021,1.4906542,-1.4317796,dave schile|dave@schile.com,undefined,11,8
-3.1412554,-6.435359,0.09335179,alexander randa|randa.alex@active.by|randa.alex@gmail.com,undefined,14,27
-3.1021752,-6.4154377,0.13078035,jeremy mack|jmacktdkc@gmail.com,undefined,12,8
-2.659352,-6.671332,0.4056995,miks|miks@cubesystems.lv,undefined,39,256
-2.5560336,-6.7165017,0.5032593,robb kidd|robb@thekidds.org,undefined,39,215
-2.6026292,-6.68146,0.4242514,steven verbeek|dubcanada@gmail.com|sverbeek@modernmedia.ca,undefined,34,7
-1.8016881,-5.2317805,0.8455013,cyril|jv.cyril@gamil.com|jv.cyril@gmail.com,undefined,25,160
-0.9741239,-1.937717,1.2681483,jakub jirutka|jakub@jirutka.cz,undefined,22,1375
-1.7512559,-5.0803504,0.84348714,alex denisov|alexdenisov|1101.debian@gmail.com,undefined,70,263
-2.328593,-4.8334627,1.0322988,andrew kulakov|andrew8xx8|avk@8xx8.ru,undefined,105,111
-1.9967949,-5.2374673,0.8784762,sebastian ziebell|sebastian.ziebell@asquera.de,undefined,62,29
-2.2571054,-2.5475185,1.534451,mike wyatt|mikew|wyatt.mike@gmail.com,undefined,18,1068
-2.0887744,-4.613599,1.2837982,angus macarthur|amacarthur@blackberry.com|amacarthur@rim.com,undefined,21,225
-2.2951958,-4.614471,1.2224689,izaak alpert|ialpert@blackberry.com|ialpert@gmail.com|ihalpert@blackberry.com,undefined,54,215
-2.202087,-4.6614876,1.252841,ash|ash wilson|smashwilson@gmail.com,undefined,22,122
-2.2290182,-4.6253695,1.2771512,jack weeden|jack@ajack.org,undefined,15,36
-2.0389774,-3.624212,1.4703449,rovanion|rovanion luckey|rovanion.luckey@gmail.com,undefined,12,116
-2.2728293,-4.3024926,0.9974877,pierre de la morinerie|kemenaran@gmail.com|pierre@capitainetrain.com|pmorinerie@captaintrain.com,undefined,26,855
-1.4139398,-2.9469266,1.4634285,jubianchi|contact@jubianchi.fr|julien.bianchi@pmsipilot.com,undefined,13,255
-1.8398726,-2.3246713,1.467716,stephan van leeuwen|stephan.vanleeuwen5@gmail.com,undefined,12,88
-1.9613323,-2.76835,1.4408594,marco wessel|marco@poop.nl|mwessel@gmail.com,undefined,15,396
-1.8869164,-2.4328477,1.4630934,sabba petri|sabbap@gmail.com,undefined,22,9
-1.9123012,-2.1665778,1.427443,nicolas|nicolas@gitlab.com,undefined,11,15
-1.327305,-1.8213234,1.4112186,darby|darbsies@gmail.com,undefined,19,90
-1.698695,-0.73869914,1.6844941,baldinof|florent (hp)|baldinof@gmail.com,undefined,14,625
-1.9473324,-0.71474504,1.658501,han loong liauw|hanloongliauw@gmail.com,undefined,13,7
-1.6074983,-0.71688986,1.6391621,jason lee|huacnlee@gmail.com,undefined,13,109
-1.9059224,-0.6564538,1.7168628,andriy dyadyura|adyadyura@andriys-macbook-pro.fritz.box|adyadyura@andriys-mbp.fritz.box|adyadyura@andriys-mbp.lan,undefined,14,27
-0.9358825,0.1298999,1.5351382,arinde eniola|eniolaarinde1@gmail.com,undefined,53,89
-1.5186359,0.53003335,1.4852028,john mcgehee|gitlab@johnnado.com|jmcgehee@wavesemi.com|jmcgeheeiv@gmail.com,undefined,11,167
-1.1085553,0.3157373,1.4889452,long nguyen|long.polyglot@gmail.com,undefined,33,34
-1.1428164,0.29461902,1.5167433,andrei gliga|otzy_007@yahoo.com,undefined,44,0
-1.133586,0.45255968,1.2528901,barthc|bartholomew|mackintosh02@gmail.com,undefined,15,140
-1.5832374,1.0999348,1.3732281,katarzyna kobierska|kkobierska@gmail.com,undefined,88,81
-1.605642,0.86093295,1.4171271,ubudzisz|ula budziszewska|ubudzisz@gmail.com,undefined,26,70
-1.375599,1.3355626,1.2776911,fu xu|fuxu@fuxu.name,undefined,15,40
-1.4500185,1.2784432,1.3368278,fidomax|adobegitler@gmail.com,undefined,13,0
1.4675548,0.5272289,1.4087304,semyon pupkov|mail@semyonpupkov.com|semen.pupkov@gmail.com,undefined,48,129
1.37942,0.7861443,1.2043256,nur rony|pro.nmrony@gmail.com,undefined,74,115
0.7512096,0.9619016,1.3438882,ryan harris|harrisryan1@gmail.com,undefined,25,60
-1.359495,2.4055398,1.3057423,munken|mm.munk@gmail.com,undefined,11,7
-1.5484675,2.3392808,1.3031719,gabriel gizotti|gabriel@gizotti.com,undefined,27,12
-1.597708,2.3382864,1.5067173,richard macklin|richard.github@nrm.com,undefined,12,18
-1.5679142,2.3094335,1.5398262,martin cabrera|martin@kisland.com,undefined,11,6
-1.5886984,2.3729148,1.5206265,leandro camargo|leandroico@gmail.com,undefined,15,0
-1.5684326,2.3802845,1.437544,alex braha stoll|alexbrahastoll@gmail.com,undefined,32,44
-1.3891615,-1.597121,1.3148307,harper henn|harper.henn@gmail.com|harper.henn@legitscript.com,undefined,20,541
1.5168641,1.3961579,-0.97919965,jason tevnan|jtevnan|jtevnan@gitlab.com,undefined,18,281
2.7007012,1.2998053,-0.5274587,gitlab release tools bot|robert+release-tools@gitlab.com,undefined,22,115
0.9183533,1.1755366,0.07834801,jason blais|jason@mattermost.com,undefined,19,598
1.684711,1.4839759,-1.3986517,eric sethna|eric+1@mattermost.com|eric@spinpunch.com,undefined,13,169
2.8937168,0.9841766,-0.17915457,harrison healey|harrison@mattermost.com|harrisonmhealey@gmail.com,undefined,24,349
2.1459477,1.5656455,-1.3823558,micaël bergeron|mbergeron@gitlab.com,Meltano,15,141
-1.9489287,1.8944938,1.4763064,norman clarke|norman@njclarke.com,undefined,56,1301
-1.6399624,-4.8524823,0.9609379,hongli lai (phusion)|hongli@phusion.nl,undefined,55,1704
-2.5721457,-6.708097,0.51396096,mgawlista|mg@reqorder.com,undefined,14,586
-1.9199462,1.7495852,1.5703131,aaron patterson|aaron.patterson@gmail.com,undefined,18,2337
-1.50742,1.0436965,1.4359179,andreas m. brændhaugen|andreasmb|andreas@lever.co,undefined,34,451
